<?xml version="1.0" encoding="iso-8859-1"?>
<!-- Generator: Adobe Illustrator 19.0.0, SVG Export Plug-In . SVG Version: 6.00 Build 0)  -->
<svg version="1.1" id="Capa_1" xmlns="http://www.w3.org/2000/svg" xmlns:xlink="http://www.w3.org/1999/xlink" x="0px" y="0px"
	 viewBox="0 0 512 512" style="enable-background:new 0 0 512 512;" xml:space="preserve">
<g>
	<g>
		<path d="M256,374.5c-42.458,0-77,30.654-77,68.333c0,5.523,4.477,10,10,10h24.942C218.865,469.601,235.852,482,256,482
			s37.135-12.399,42.058-29.167H323c5.523,0,10-4.477,10-10C333,405.154,298.458,374.5,256,374.5z M256,462
			c-8.468,0-15.905-3.672-20.041-9.167h40.083C271.905,458.328,264.468,462,256,462z M289.5,432.833h-67h-22.273
			C205.674,410.964,228.612,394.5,256,394.5s50.326,16.464,55.773,38.333H289.5z"/>
	</g>
</g>
<g>
	<g>
		<path d="M256.001,335.17c-5.52,0-10,4.48-10,10c0,5.51,4.48,10,10,10c5.51,0,10-4.49,10-10
			C266.001,339.65,261.511,335.17,256.001,335.17z"/>
	</g>
</g>
<g>
	<g>
		<path d="M192.891,162.65c-4.39-3.35-10.67-2.51-14.02,1.88c-3.35,4.39-2.51,10.67,1.88,14.02c1.81,1.38,3.94,2.05,6.06,2.05
			c3.01,0,5.99-1.35,7.95-3.93C198.121,172.28,197.281,166.01,192.891,162.65z"/>
	</g>
</g>
<g>
	<g>
		<path d="M226.361,140.93c-2.46-4.95-8.46-6.97-13.41-4.52c-4.94,2.46-6.97,8.46-4.51,13.4c1.74,3.53,5.28,5.56,8.96,5.56
			c1.5,0,3.01-0.33,4.44-1.04C226.791,151.88,228.811,145.88,226.361,140.93z"/>
	</g>
</g>
<g>
	<g>
		<path d="M333.131,164.53c-3.35-4.39-9.63-5.23-14.02-1.88c-4.39,3.36-5.23,9.63-1.88,14.02c1.97,2.58,4.95,3.93,7.96,3.93
			c2.11,0,4.25-0.67,6.06-2.05C335.641,175.2,336.481,168.92,333.131,164.53z"/>
	</g>
</g>
<g>
	<g>
		<path d="M299.042,136.41c-4.94-2.45-10.94-0.43-13.4,4.52c-2.45,4.95-0.43,10.95,4.52,13.4c1.43,0.71,2.94,1.04,4.43,1.04
			c3.68,0,7.22-2.04,8.97-5.56C306.011,144.87,303.991,138.87,299.042,136.41z"/>
	</g>
</g>
<g>
	<g>
		<path d="M440,405.095V293.833c0-53.486-43.514-97-97-97c-15.812,0-31.225,3.877-45.006,11.106
			c-9.441-5.471-20.309-9.159-31.994-10.511v-26.762c0-37.133,18.791-91.341,50.449-120.779
			c9.531-7.214,16.407-17.759,18.879-29.887H363c5.523,0,10-4.477,10-10s-4.477-10-10-10H149c-5.523,0-10,4.477-10,10
			s4.477,10,10,10h27.673c2.472,12.128,9.348,22.672,18.877,29.886C227.209,79.325,246,133.534,246,170.667v26.762
			c-11.677,1.351-22.538,5.035-31.975,10.5c-13.785-7.231-29.21-11.095-45.025-11.095c-53.486,0-97,43.514-97,97v111.262
			c-37.748,4.367-67,33.068-67,67.738c0,5.523,4.477,10,10,10h24.942C44.865,499.601,61.852,512,82,512s37.135-12.399,42.058-29.167
			H149c5.523,0,10-4.477,10-10c0-34.67-29.252-63.372-67-67.738V293.833c0-42.458,34.542-77,77-77c9.472,0,18.762,1.758,27.454,5.08
			C185.556,233.7,179,248.762,179,265.167c0,5.523,4.477,10,10,10h57.001v30.003c0,5.51,4.48,10,10,10c5.51,0,10-4.49,10-10v-30.003
			H323c5.523,0,10-4.477,10-10c0-16.408-6.559-31.473-17.461-43.26c8.694-3.321,17.988-5.073,27.461-5.073c42.458,0,77,34.542,77,77
			v111.262c-37.748,4.367-67,33.068-67,67.738c0,5.523,4.477,10,10,10h24.942C392.865,499.601,409.852,512,430,512
			s37.135-12.399,42.058-29.167H497c5.523,0,10-4.477,10-10C507,438.163,477.748,409.462,440,405.095z M82,492
			c-8.468,0-15.905-3.672-20.041-9.167h40.083C97.905,488.328,90.468,492,82,492z M137.773,462.833H115.5h-67H26.227
			C31.674,440.964,54.612,424.5,82,424.5S132.326,440.964,137.773,462.833z M197.38,20h117.24c-4.127,11.641-15.249,20-28.287,20
			h-60.667C212.629,40,201.508,31.641,197.38,20z M230.242,60h51.525C270.641,76.232,261.994,94.75,256,113.205
			C250.007,94.752,241.366,76.231,230.242,60z M200.227,255.167c5.447-21.869,28.385-38.333,55.773-38.333
			s50.326,16.464,55.773,38.333H200.227z M430,492c-8.468,0-15.905-3.672-20.042-9.167h40.083C445.905,488.328,438.468,492,430,492z
			 M463.5,462.833h-67h-22.273C379.674,440.964,402.612,424.5,430,424.5s50.326,16.464,55.773,38.333H463.5z"/>
	</g>
</g>
<g>
</g>
<g>
</g>
<g>
</g>
<g>
</g>
<g>
</g>
<g>
</g>
<g>
</g>
<g>
</g>
<g>
</g>
<g>
</g>
<g>
</g>
<g>
</g>
<g>
</g>
<g>
</g>
<g>
</g>
</svg>
